C:\Users\kiranni\eclipse-workspace\OpusAutomation2\src\main\java\mavenTest\OpusPR\Internet_BB.java
C:\Users\kiranni\eclipse-workspace\OpusAutomation2\src\main\java\mavenTest\OpusPR\CreateAccount.java
C:\Users\kiranni\eclipse-workspace\OpusAutomation2\src\main\java\mavenTest\OpusPR\SubmitOrder.java
C:\Users\kiranni\eclipse-workspace\OpusAutomation2\src\main\java\mavenTest\OpusPR\CustCheckout_sign.java
C:\Users\kiranni\eclipse-workspace\OpusAutomation2\src\main\java\mavenTest\OpusPR\ReadExcelData.java
C:\Users\kiranni\eclipse-workspace\OpusAutomation2\src\main\java\mavenTest\OpusPR\Dtvhsiabb.java
C:\Users\kiranni\eclipse-workspace\OpusAutomation2\src\main\java\mavenTest\OpusPR\OrderConfirmation.java
C:\Users\kiranni\eclipse-workspace\OpusAutomation2\src\main\java\mavenTest\OpusPR\PaymentMethod.java
C:\Users\kiranni\eclipse-workspace\OpusAutomation2\src\main\java\mavenTest\OpusPR\Customer_Checkout.java
C:\Users\kiranni\eclipse-workspace\OpusAutomation2\src\main\java\mavenTest\OpusPR\ServiceProfileForNewCust.java
C:\Users\kiranni\eclipse-workspace\OpusAutomation2\src\main\java\lib\Screenshot.java
C:\Users\kiranni\eclipse-workspace\OpusAutomation2\src\main\java\mavenTest\OpusPR\ReceiptPreference.java
C:\Users\kiranni\eclipse-workspace\OpusAutomation2\src\main\java\mavenTest\OpusPR\BuildMyBundle.java
C:\Users\kiranni\eclipse-workspace\OpusAutomation2\src\main\java\mavenTest\OpusPR\InstallAndInstallment.java
C:\Users\kiranni\eclipse-workspace\OpusAutomation2\src\main\java\mavenTest\OpusPR\OpusOperations.java
C:\Users\kiranni\eclipse-workspace\OpusAutomation2\src\main\java\mavenTest\OpusPR\ServiceProfileForNewCustDTVStanalone.java
C:\Users\kiranni\eclipse-workspace\OpusAutomation2\src\main\java\mavenTest\OpusPR\UnifiedCreditPolicyReq.java
C:\Users\kiranni\eclipse-workspace\OpusAutomation2\src\main\java\mavenTest\OpusPR\ReviewAndSubmit.java
C:\Users\kiranni\eclipse-workspace\OpusAutomation2\src\main\java\lib\ExcelDataConfig.java
C:\Users\kiranni\eclipse-workspace\OpusAutomation2\src\main\java\mavenTest\OpusPR\TaxInformation.java
C:\Users\kiranni\eclipse-workspace\OpusAutomation2\src\main\java\mavenTest\OpusPR\BuildBundle2.java
C:\Users\kiranni\eclipse-workspace\OpusAutomation2\src\main\java\mavenTest\OpusPR\createAccountCreditResult.java
C:\Users\kiranni\eclipse-workspace\OpusAutomation2\src\main\java\mavenTest\OpusPR\CreateAccount2.java
C:\Users\kiranni\eclipse-workspace\OpusAutomation2\src\main\java\mavenTest\OpusPR\OPUSCreateCustOps.java
C:\Users\kiranni\eclipse-workspace\OpusAutomation2\src\main\java\mavenTest\OpusPR\ReviewOrder.java
C:\Users\kiranni\eclipse-workspace\OpusAutomation2\src\main\java\mavenTest\OpusPR\Dtvstandalone.java
C:\Users\kiranni\eclipse-workspace\OpusAutomation2\src\main\java\mavenTest\OpusPR\ReviewOrderCont.java
C:\Users\kiranni\eclipse-workspace\OpusAutomation2\src\main\java\mavenTest\OpusPR\ServiceProfileForNewCustDTVHSIA.java
C:\Users\kiranni\eclipse-workspace\OpusAutomation2\src\main\java\lib\Locators.java
